<svg width="24" height="25" viewBox="0 0 24 25" fill="none" xmlns="http://www.w3.org/2000/svg">
<g clip-path="url(#clip0_129_2461)">
<path d="M0.479614 7.97571H23.5196" stroke="#000000" stroke-width="0.92" stroke-linecap="round" stroke-linejoin="round"/>
<path d="M0.479614 9.9364V21.31C0.479614 21.8243 0.683922 22.3175 1.04759 22.6812C1.41126 23.0449 1.90451 23.2492 2.41881 23.2492H21.5804C22.0947 23.2492 22.588 23.0449 22.9516 22.6812C23.3153 22.3175 23.5196 21.8243 23.5196 21.31V9.9364" stroke="#000000" stroke-width="0.92" stroke-linecap="round" stroke-linejoin="round"/>
<path d="M18.7196 2.63562H2.41881C1.90428 2.63626 1.41105 2.8411 1.04745 3.20515C0.683845 3.5692 0.479614 4.06269 0.479614 4.57722V7.97562" stroke="#000000" stroke-width="0.92" stroke-linecap="round" stroke-linejoin="round"/>
<path d="M23.5208 7.97562V4.57722C23.5208 4.06269 23.3166 3.5692 22.953 3.20515C22.5894 2.8411 22.0962 2.63626 21.5816 2.63562H21.1208" stroke="#000000" stroke-width="0.92" stroke-linecap="round" stroke-linejoin="round"/>
<path d="M7.19745 11.374H3.39392V14.1606H7.19745V11.374Z" stroke="#000000" stroke-width="0.92" stroke-linecap="round" stroke-linejoin="round"/>
<path d="M13.9048 11.374H10.1013V14.1606H13.9048V11.374Z" stroke="#000000" stroke-width="0.92" stroke-linecap="round" stroke-linejoin="round"/>
<path d="M20.6155 11.374H16.812V14.1606H20.6155V11.374Z" stroke="#000000" stroke-width="0.92" stroke-linecap="round" stroke-linejoin="round"/>
<path d="M7.19745 17.0692H3.39392V19.8557H7.19745V17.0692Z" stroke="#000000" stroke-width="0.92" stroke-linecap="round" stroke-linejoin="round"/>
<path d="M13.9048 17.0692H10.1013V19.8557H13.9048V17.0692Z" stroke="#000000" stroke-width="0.92" stroke-linecap="round" stroke-linejoin="round"/>
<path d="M20.6155 17.0692H16.812V19.8557H20.6155V17.0692Z" stroke="#000000" stroke-width="0.92" stroke-linecap="round" stroke-linejoin="round"/>
<path d="M5.29102 3.85441V1.42371" stroke="#000000" stroke-width="0.92" stroke-linecap="round" stroke-linejoin="round"/>
<path d="M18.708 3.85441V1.42371" stroke="#000000" stroke-width="0.92" stroke-linecap="round" stroke-linejoin="round"/>
</g>
<defs>
<clipPath id="clip0_129_2461">
<rect width="24" height="24" fill="white" transform="translate(0 0.336426)"/>
</clipPath>
</defs>
</svg>
